expr,min,lq,mean,median,uq,max,neval
raw.csv.base,7423.641861,7497.6529654999995,8001.3473859999995,7571.66407,8290.2001485,9008.736227,3
raw.csv.datatable,98.63641,153.87463449999998,182.89732933333335,209.112859,225.02778899999998,240.942719,3
raw.csv.datatable.df,188.442157,191.04979600000001,228.087449,193.657435,247.910095,302.162755,3
raw.csv.tidyverse,1788.703763,1968.055136,2085.1004416666665,2147.406509,2233.298781,2319.191053,3
raw.csv.sparklyr,2988.909993,5631.235208,7428.805989666667,8273.560423,9648.753988,11023.947553,3
raw.xlsx_readxl,7423.247469,11928.229329999998,19265.388784666666,16433.211191,25186.459442499996,33939.707694,3
bin.feather,46.543815,99.4973415,119.78223633333334,152.450868,156.40144700000002,160.352026,3
bin.core.rds,690.971961,721.099645,859.739875,751.227329,944.123832,1137.020335,3
bin.core.RData,613.655673,628.394717,655.6897236666666,643.133761,676.706749,710.279737,3
compressed.csv.base.gz,9268.813605,9288.460072999998,9866.465503,9308.106541,10165.291452,11022.476363,3
compressed.csv.datatable.gz,689.735566,768.1628639999999,1144.6458706666667,846.590162,1372.101023,1897.611884,3
compressed.csv.tidyverse.gz,3618.718863,3791.952454,3856.081659666667,3965.186045,3974.763058,3984.340071,3
compressed.bin.feather.gz,1490.7814,1975.2268104999998,2207.766742,2459.672221,2566.2594129999998,2672.846605,3
compressed.fst.50,63.636431,82.3843305,100.66670900000001,101.13223,119.181848,137.231466,3
compressed.fst.100,94.145343,119.9744895,130.30947933333334,145.803636,148.3915475,150.979459,3
