expr,min,lq,mean,median,uq,max,neval
raw.csv.base,64325.576941,64596.358648,66310.65809833334,64867.140355,67303.19867700001,69739.256999,3
raw.csv.tidyverse,2533.647959,2684.3375539999997,3875.669844666667,2835.027149,4546.6807875,6258.334426,3
raw.csv.datatable,458.370168,461.7491565,551.0796766666667,465.128145,597.434431,729.740717,3
raw.csv.sparklyr,4740.214653,4775.274554,4907.004204333333,4810.334455,4990.39898,5170.463505,3
raw.xlsx_writexl,22797.711292,23034.224319,23335.021397,23270.737346,23603.676449500002,23936.615553,3
bin.core.rds,4209.795411,4261.046226500001,4521.616217,4312.297042,4677.526620000001,5042.756198,3
bin.core.RData,4195.037306,4300.2359055,4370.414197666667,4405.434505,4458.1026435,4510.770782,3
bin.feather,263.282669,265.981248,269.22929766666664,268.679827,272.202612,275.725397,3
compressed.fst.50,115.867014,123.265163,126.803035,130.663312,132.2710455,133.878779,3
compressed.fst.100,2415.754472,2696.741848,2994.242883666667,2977.729224,3283.4870895000004,3589.244955,3
compressed.csv.base.gz,76145.534348,76419.818425,77272.83540066666,76694.102502,77836.485927,78978.869352,3
compressed.csv.tidyverse.gz,6205.851801,6287.4585935,6334.430122666667,6369.065386,6398.7192835000005,6428.373181,3
compressed.csv.datatable.gz,10643.062389,10713.924039500002,10917.472895333334,10784.78569,11054.6781485,11324.570607,3
compressed.bin.feather.gz,9260.849358,9325.345487499999,9476.117081666667,9389.841617,9583.7509435,9777.66027,3
compressed.fst.50.gz,7426.612315,7957.0228215,8567.768882,8487.433328,9138.3471655,9789.261003,3
compressed.fst.100.gz,7035.287085,7183.141031499999,8191.479535666666,7330.994978,8769.575761,10208.156544,3
