expr,min,lq,mean,median,uq,max,neval
raw.csv.base,15296.017791,15701.208329500001,15992.844965333334,16106.398868,16341.2585525,16576.118237,3
raw.csv.tidyverse,2916.249051,3130.5397734999997,3230.1660506666667,3344.830496,3387.1245504999997,3429.418605,3
raw.csv.datatable,543.012379,560.7228625,642.7881826666667,578.433346,692.6760845,806.918823,3
raw.csv.sparklyr,4243.534316,4468.921841,5145.129485,4694.309366,5595.9270695,6497.544773,3
raw.xlsx_writexl,22845.931846,23035.280697000002,23419.492307666667,23224.629548,23706.2725385,24187.915529,3
bin.core.rds,4342.359958,4346.193574999999,4389.814794666667,4350.027192,4413.542213,4477.057234,3
bin.core.RData,4363.279373,4367.3968735,4393.263987666667,4371.514374,4408.256295,4444.998216,3
bin.feather,535.944057,543.415188,552.13466,550.886319,560.2299615,569.573604,3
compressed.fst.50,282.718444,422.83857,647.3993686666666,562.958696,829.7398310000001,1096.520966,3
compressed.fst.100,2336.425982,2523.7132170000004,2876.9071693333335,2711.000452,3147.147763,3583.295074,3
compressed.csv.base.gz,21844.735226,22405.56577,22625.044443333332,22966.396314,23015.199052,23064.00179,3
compressed.csv.tidyverse.gz,6312.1008,6821.1111995,7097.468324,7330.121599,7490.152086,7650.182573,3
compressed.csv.datatable.gz,4795.702779,4900.8566195,4988.453862,5006.01046,5084.8294035,5163.648347,3
compressed.bin.feather.gz,4536.617223,4542.577838,4661.962609666667,4548.538453,4724.635303,4900.732153,3
compressed.fst.50.gz,3621.553743,3677.140527,4134.569044333333,3732.727311,4391.076695,5049.426079,3
compressed.fst.100.gz,3990.90079,4229.3148615,4481.534972666666,4467.728933,4726.852064000001,4985.975195,3
